{
    "hasMoreItems":false,
    "objects":[
        {
            "pathSegment":"My_Document-1-0",
            "object":{
                "allowableActions":{
                    "canGetACL":false,
                    "canGetObjectRelationships":false,
                    "canGetContentStream":true,
                    "canCheckIn":false,
                    "canApplyACL":false,
                    "canRemoveObjectFromFolder":true,
                    "canMoveObject":true,
                    "canDeleteContentStream":true,
                    "canGetProperties":true,
                    "canGetAllVersions":false,
                    "canApplyPolicy":false,
                    "canGetObjectParents":true,
                    "canSetContentStream":true,
                    "canCreateRelationship":false,
                    "canGetFolderTree":false,
                    "canCheckOut":false,
                    "canCreateDocument":false,
                    "canCancelCheckOut":false,
                    "canAddObjectToFolder":true,
                    "canRemovePolicy":false,
                    "canDeleteObject":true,
                    "canGetDescendants":false,
                    "canGetFolderParent":false,
                    "canGetAppliedPolicies":false,
                    "canDeleteTree":false,
                    "canUpdateProperties":true,
                    "canGetRenditions":false,
                    "canCreateFolder":false,
                    "canGetChildren":false
                },
                "properties":{
                    "cmis:contentStreamLength":{
                        "id":"cmis:contentStreamLength",
                        "localName":"cmis:contentStreamLength",
                        "queryName":"cmis:contentStreamLength",
                        "value":33417,
                        "type":"integer",
                        "displayName":"Content Length",
                        "cardinality":"single"
                    },
                    "cmis:versionSeriesCheckedOutBy":{
                        "id":"cmis:versionSeriesCheckedOutBy",
                        "localName":"cmis:versionSeriesCheckedOutBy",
                        "queryName":"cmis:versionSeriesCheckedOutBy",
                        "value":null,
                        "type":"string",
                        "displayName":"Checked Out By",
                        "cardinality":"single"
                    },
                    "cmis:objectTypeId":{
                        "id":"cmis:objectTypeId",
                        "localName":"cmis:objectTypeId",
                        "queryName":"cmis:objectTypeId",
                        "value":"ComplexType",
                        "type":"id",
                        "displayName":"Type-Id",
                        "cardinality":"single"
                    },
                    "cmis:versionSeriesCheckedOutId":{
                        "id":"cmis:versionSeriesCheckedOutId",
                        "localName":"cmis:versionSeriesCheckedOutId",
                        "queryName":"cmis:versionSeriesCheckedOutId",
                        "value":null,
                        "type":"id",
                        "displayName":"Checked Out Id",
                        "cardinality":"single"
                    },
                    "HtmlProp":{
                        "id":"HtmlProp",
                        "localName":"HtmlProp",
                        "queryName":"HtmlProp",
                        "value":null,
                        "type":"html",
                        "displayName":"Sample Html Property",
                        "cardinality":"single"
                    },
                    "IdProp":{
                        "id":"IdProp",
                        "localName":"IdProp",
                        "queryName":"IdProp",
                        "value":null,
                        "type":"id",
                        "displayName":"Sample Id Property",
                        "cardinality":"single"
                    },
                    "DateTimePropMV":{
                        "id":"DateTimePropMV",
                        "localName":"DateTimePropMV",
                        "queryName":"DateTimePropMV",
                        "value":null,
                        "type":"datetime",
                        "displayName":"Sample DateTime multi-value Property",
                        "cardinality":"multi"
                    },
                    "UriProp":{
                        "id":"UriProp",
                        "localName":"UriProp",
                        "queryName":"UriProp",
                        "value":null,
                        "type":"uri",
                        "displayName":"Sample Uri Property",
                        "cardinality":"single"
                    },
                    "cmis:versionSeriesId":{
                        "id":"cmis:versionSeriesId",
                        "localName":"cmis:versionSeriesId",
                        "queryName":"cmis:versionSeriesId",
                        "value":null,
                        "type":"id",
                        "displayName":"Version Series Id",
                        "cardinality":"single"
                    },
                    "DecimalProp":{
                        "id":"DecimalProp",
                        "localName":"DecimalProp",
                        "queryName":"DecimalProp",
                        "value":null,
                        "type":"decimal",
                        "displayName":"Sample Decimal Property",
                        "cardinality":"single"
                    },
                    "UriPropMV":{
                        "id":"UriPropMV",
                        "localName":"UriPropMV",
                        "queryName":"UriPropMV",
                        "value":null,
                        "type":"uri",
                        "displayName":"Sample Uri multi-value Property",
                        "cardinality":"multi"
                    },
                    "cmis:versionLabel":{
                        "id":"cmis:versionLabel",
                        "localName":"cmis:versionLabel",
                        "queryName":"cmis:versionLabel",
                        "value":null,
                        "type":"string",
                        "displayName":"Version Label",
                        "cardinality":"single"
                    },
                    "cmis:isLatestVersion":{
                        "id":"cmis:isLatestVersion",
                        "localName":"cmis:isLatestVersion",
                        "queryName":"cmis:isLatestVersion",
                        "value":true,
                        "type":"boolean",
                        "displayName":"Is Latest Version",
                        "cardinality":"single"
                    },
                    "BooleanProp":{
                        "id":"BooleanProp",
                        "localName":"BooleanProp",
                        "queryName":"BooleanProp",
                        "value":null,
                        "type":"boolean",
                        "displayName":"Sample Boolean Property",
                        "cardinality":"single"
                    },
                    "cmis:isVersionSeriesCheckedOut":{
                        "id":"cmis:isVersionSeriesCheckedOut",
                        "localName":"cmis:isVersionSeriesCheckedOut",
                        "queryName":"cmis:isVersionSeriesCheckedOut",
                        "value":false,
                        "type":"boolean",
                        "displayName":"Checked Out",
                        "cardinality":"single"
                    },
                    "cmis:lastModifiedBy":{
                        "id":"cmis:lastModifiedBy",
                        "localName":"cmis:lastModifiedBy",
                        "queryName":"cmis:lastModifiedBy",
                        "value":"unknown",
                        "type":"string",
                        "displayName":"Modified By",
                        "cardinality":"single"
                    },
                    "cmis:createdBy":{
                        "id":"cmis:createdBy",
                        "localName":"cmis:createdBy",
                        "queryName":"cmis:createdBy",
                        "value":"unknown",
                        "type":"string",
                        "displayName":"Created By",
                        "cardinality":"single"
                    },
                    "IdPropMV":{
                        "id":"IdPropMV",
                        "localName":"IdPropMV",
                        "queryName":"IdPropMV",
                        "value":null,
                        "type":"id",
                        "displayName":"Sample Id Html multi-value Property",
                        "cardinality":"multi"
                    },
                    "PickListProp":{
                        "id":"PickListProp",
                        "localName":"PickListProp",
                        "queryName":"PickListProp",
                        "value":"blue",
                        "type":"string",
                        "displayName":"Sample Pick List Property",
                        "cardinality":"single"
                    },
                    "HtmlPropMV":{
                        "id":"HtmlPropMV",
                        "localName":"HtmlPropMV",
                        "queryName":"HtmlPropMV",
                        "value":null,
                        "type":"html",
                        "displayName":"Sample Html multi-value Property",
                        "cardinality":"multi"
                    },
                    "IntProp":{
                        "id":"IntProp",
                        "localName":"IntProp",
                        "queryName":"IntProp",
                        "value":null,
                        "type":"integer",
                        "displayName":"Sample Int Property",
                        "cardinality":"single"
                    },
                    "cmis:isLatestMajorVersion":{
                        "id":"cmis:isLatestMajorVersion",
                        "localName":"cmis:isLatestMajorVersion",
                        "queryName":"cmis:isLatestMajorVersion",
                        "value":true,
                        "type":"boolean",
                        "displayName":"Is Latest Major Version",
                        "cardinality":"single"
                    },
                    "cmis:contentStreamId":{
                        "id":"cmis:contentStreamId",
                        "localName":"cmis:contentStreamId",
                        "queryName":"cmis:contentStreamId",
                        "value":null,
                        "type":"id",
                        "displayName":"Stream Id",
                        "cardinality":"single"
                    },
                    "cmis:name":{
                        "id":"cmis:name",
                        "localName":"cmis:name",
                        "queryName":"cmis:name",
                        "value":"My_Document-1-0",
                        "type":"string",
                        "displayName":"Name",
                        "cardinality":"single"
                    },
                    "cmis:contentStreamMimeType":{
                        "id":"cmis:contentStreamMimeType",
                        "localName":"cmis:contentStreamMimeType",
                        "queryName":"cmis:contentStreamMimeType",
                        "value":"text\/plain",
                        "type":"string",
                        "displayName":"Mime Type",
                        "cardinality":"single"
                    },
                    "StringProp":{
                        "id":"StringProp",
                        "localName":"StringProp",
                        "queryName":"StringProp",
                        "value":"My Doc StringProperty 6",
                        "type":"string",
                        "displayName":"Sample String Property",
                        "cardinality":"single"
                    },
                    "cmis:creationDate":{
                        "id":"cmis:creationDate",
                        "localName":"cmis:creationDate",
                        "queryName":"cmis:creationDate",
                        "value":1342160009637,
                        "type":"datetime",
                        "displayName":"Creation Date",
                        "cardinality":"single"
                    },
                    "cmis:changeToken":{
                        "id":"cmis:changeToken",
                        "localName":"cmis:changeToken",
                        "queryName":"cmis:changeToken",
                        "value":"1342160009637",
                        "type":"string",
                        "displayName":"Change Token",
                        "cardinality":"single"
                    },
                    "DecimalPropMV":{
                        "id":"DecimalPropMV",
                        "localName":"DecimalPropMV",
                        "queryName":"DecimalPropMV",
                        "value":null,
                        "type":"decimal",
                        "displayName":"Sample Decimal multi-value Property",
                        "cardinality":"multi"
                    },
                    "DateTimeProp":{
                        "id":"DateTimeProp",
                        "localName":"DateTimeProp",
                        "queryName":"DateTimeProp",
                        "value":null,
                        "type":"datetime",
                        "displayName":"Sample DateTime Property",
                        "cardinality":"single"
                    },
                    "BooleanPropMV":{
                        "id":"BooleanPropMV",
                        "localName":"BooleanPropMV",
                        "queryName":"BooleanPropMV",
                        "value":null,
                        "type":"boolean",
                        "displayName":"Sample Boolean multi-value Property",
                        "cardinality":"multi"
                    },
                    "cmis:checkinComment":{
                        "id":"cmis:checkinComment",
                        "localName":"cmis:checkinComment",
                        "queryName":"cmis:checkinComment",
                        "value":null,
                        "type":"string",
                        "displayName":"Checkin Comment",
                        "cardinality":"single"
                    },
                    "cmis:objectId":{
                        "id":"cmis:objectId",
                        "localName":"cmis:objectId",
                        "queryName":"cmis:objectId",
                        "value":"114",
                        "type":"id",
                        "displayName":"Object Id",
                        "cardinality":"single"
                    },
                    "cmis:isMajorVersion":{
                        "id":"cmis:isMajorVersion",
                        "localName":"cmis:isMajorVersion",
                        "queryName":"cmis:isMajorVersion",
                        "value":true,
                        "type":"boolean",
                        "displayName":"Is Major Version",
                        "cardinality":"single"
                    },
                    "cmis:isImmutable":{
                        "id":"cmis:isImmutable",
                        "localName":"cmis:isImmutable",
                        "queryName":"cmis:isImmutable",
                        "value":false,
                        "type":"boolean",
                        "displayName":"Immutable",
                        "cardinality":"single"
                    },
                    "cmis:baseTypeId":{
                        "id":"cmis:baseTypeId",
                        "localName":"cmis:baseTypeId",
                        "queryName":"cmis:baseTypeId",
                        "value":"cmis:document",
                        "type":"id",
                        "displayName":"Base-Type-Id",
                        "cardinality":"single"
                    },
                    "IntPropMV":{
                        "id":"IntPropMV",
                        "localName":"IntPropMV",
                        "queryName":"IntPropMV",
                        "value":null,
                        "type":"integer",
                        "displayName":"Sample Int multi-value Property",
                        "cardinality":"multi"
                    },
                    "cmis:lastModificationDate":{
                        "id":"cmis:lastModificationDate",
                        "localName":"cmis:lastModificationDate",
                        "queryName":"cmis:lastModificationDate",
                        "value":1342160009637,
                        "type":"datetime",
                        "displayName":"Modification Date",
                        "cardinality":"single"
                    },
                    "cmis:contentStreamFileName":{
                        "id":"cmis:contentStreamFileName",
                        "localName":"cmis:contentStreamFileName",
                        "queryName":"cmis:contentStreamFileName",
                        "value":"data.txt",
                        "type":"string",
                        "displayName":"File Name",
                        "cardinality":"single"
                    }
                }
            }
        },
        {
            "pathSegment":"My_Document-1-1",
            "object":{
                "allowableActions":{
                    "canGetACL":false,
                    "canGetObjectRelationships":false,
                    "canGetContentStream":true,
                    "canCheckIn":false,
                    "canApplyACL":false,
                    "canRemoveObjectFromFolder":true,
                    "canMoveObject":true,
                    "canDeleteContentStream":true,
                    "canGetProperties":true,
                    "canGetAllVersions":false,
                    "canApplyPolicy":false,
                    "canGetObjectParents":true,
                    "canSetContentStream":true,
                    "canCreateRelationship":false,
                    "canGetFolderTree":false,
                    "canCheckOut":false,
                    "canCreateDocument":false,
                    "canCancelCheckOut":false,
                    "canAddObjectToFolder":true,
                    "canRemovePolicy":false,
                    "canDeleteObject":true,
                    "canGetDescendants":false,
                    "canGetFolderParent":false,
                    "canGetAppliedPolicies":false,
                    "canDeleteTree":false,
                    "canUpdateProperties":true,
                    "canGetRenditions":false,
                    "canCreateFolder":false,
                    "canGetChildren":false
                },
                "properties":{
                    "cmis:contentStreamLength":{
                        "id":"cmis:contentStreamLength",
                        "localName":"cmis:contentStreamLength",
                        "queryName":"cmis:contentStreamLength",
                        "value":33445,
                        "type":"integer",
                        "displayName":"Content Length",
                        "cardinality":"single"
                    },
                    "cmis:versionSeriesCheckedOutBy":{
                        "id":"cmis:versionSeriesCheckedOutBy",
                        "localName":"cmis:versionSeriesCheckedOutBy",
                        "queryName":"cmis:versionSeriesCheckedOutBy",
                        "value":null,
                        "type":"string",
                        "displayName":"Checked Out By",
                        "cardinality":"single"
                    },
                    "cmis:objectTypeId":{
                        "id":"cmis:objectTypeId",
                        "localName":"cmis:objectTypeId",
                        "queryName":"cmis:objectTypeId",
                        "value":"ComplexType",
                        "type":"id",
                        "displayName":"Type-Id",
                        "cardinality":"single"
                    },
                    "cmis:versionSeriesCheckedOutId":{
                        "id":"cmis:versionSeriesCheckedOutId",
                        "localName":"cmis:versionSeriesCheckedOutId",
                        "queryName":"cmis:versionSeriesCheckedOutId",
                        "value":null,
                        "type":"id",
                        "displayName":"Checked Out Id",
                        "cardinality":"single"
                    },
                    "HtmlProp":{
                        "id":"HtmlProp",
                        "localName":"HtmlProp",
                        "queryName":"HtmlProp",
                        "value":null,
                        "type":"html",
                        "displayName":"Sample Html Property",
                        "cardinality":"single"
                    },
                    "IdProp":{
                        "id":"IdProp",
                        "localName":"IdProp",
                        "queryName":"IdProp",
                        "value":null,
                        "type":"id",
                        "displayName":"Sample Id Property",
                        "cardinality":"single"
                    },
                    "DateTimePropMV":{
                        "id":"DateTimePropMV",
                        "localName":"DateTimePropMV",
                        "queryName":"DateTimePropMV",
                        "value":null,
                        "type":"datetime",
                        "displayName":"Sample DateTime multi-value Property",
                        "cardinality":"multi"
                    },
                    "UriProp":{
                        "id":"UriProp",
                        "localName":"UriProp",
                        "queryName":"UriProp",
                        "value":null,
                        "type":"uri",
                        "displayName":"Sample Uri Property",
                        "cardinality":"single"
                    },
                    "cmis:versionSeriesId":{
                        "id":"cmis:versionSeriesId",
                        "localName":"cmis:versionSeriesId",
                        "queryName":"cmis:versionSeriesId",
                        "value":null,
                        "type":"id",
                        "displayName":"Version Series Id",
                        "cardinality":"single"
                    },
                    "DecimalProp":{
                        "id":"DecimalProp",
                        "localName":"DecimalProp",
                        "queryName":"DecimalProp",
                        "value":null,
                        "type":"decimal",
                        "displayName":"Sample Decimal Property",
                        "cardinality":"single"
                    },
                    "UriPropMV":{
                        "id":"UriPropMV",
                        "localName":"UriPropMV",
                        "queryName":"UriPropMV",
                        "value":null,
                        "type":"uri",
                        "displayName":"Sample Uri multi-value Property",
                        "cardinality":"multi"
                    },
                    "cmis:versionLabel":{
                        "id":"cmis:versionLabel",
                        "localName":"cmis:versionLabel",
                        "queryName":"cmis:versionLabel",
                        "value":null,
                        "type":"string",
                        "displayName":"Version Label",
                        "cardinality":"single"
                    },
                    "cmis:isLatestVersion":{
                        "id":"cmis:isLatestVersion",
                        "localName":"cmis:isLatestVersion",
                        "queryName":"cmis:isLatestVersion",
                        "value":true,
                        "type":"boolean",
                        "displayName":"Is Latest Version",
                        "cardinality":"single"
                    },
                    "BooleanProp":{
                        "id":"BooleanProp",
                        "localName":"BooleanProp",
                        "queryName":"BooleanProp",
                        "value":null,
                        "type":"boolean",
                        "displayName":"Sample Boolean Property",
                        "cardinality":"single"
                    },
                    "cmis:isVersionSeriesCheckedOut":{
                        "id":"cmis:isVersionSeriesCheckedOut",
                        "localName":"cmis:isVersionSeriesCheckedOut",
                        "queryName":"cmis:isVersionSeriesCheckedOut",
                        "value":false,
                        "type":"boolean",
                        "displayName":"Checked Out",
                        "cardinality":"single"
                    },
                    "cmis:lastModifiedBy":{
                        "id":"cmis:lastModifiedBy",
                        "localName":"cmis:lastModifiedBy",
                        "queryName":"cmis:lastModifiedBy",
                        "value":"unknown",
                        "type":"string",
                        "displayName":"Modified By",
                        "cardinality":"single"
                    },
                    "cmis:createdBy":{
                        "id":"cmis:createdBy",
                        "localName":"cmis:createdBy",
                        "queryName":"cmis:createdBy",
                        "value":"unknown",
                        "type":"string",
                        "displayName":"Created By",
                        "cardinality":"single"
                    },
                    "IdPropMV":{
                        "id":"IdPropMV",
                        "localName":"IdPropMV",
                        "queryName":"IdPropMV",
                        "value":null,
                        "type":"id",
                        "displayName":"Sample Id Html multi-value Property",
                        "cardinality":"multi"
                    },
                    "PickListProp":{
                        "id":"PickListProp",
                        "localName":"PickListProp",
                        "queryName":"PickListProp",
                        "value":"blue",
                        "type":"string",
                        "displayName":"Sample Pick List Property",
                        "cardinality":"single"
                    },
                    "HtmlPropMV":{
                        "id":"HtmlPropMV",
                        "localName":"HtmlPropMV",
                        "queryName":"HtmlPropMV",
                        "value":null,
                        "type":"html",
                        "displayName":"Sample Html multi-value Property",
                        "cardinality":"multi"
                    },
                    "IntProp":{
                        "id":"IntProp",
                        "localName":"IntProp",
                        "queryName":"IntProp",
                        "value":null,
                        "type":"integer",
                        "displayName":"Sample Int Property",
                        "cardinality":"single"
                    },
                    "cmis:isLatestMajorVersion":{
                        "id":"cmis:isLatestMajorVersion",
                        "localName":"cmis:isLatestMajorVersion",
                        "queryName":"cmis:isLatestMajorVersion",
                        "value":true,
                        "type":"boolean",
                        "displayName":"Is Latest Major Version",
                        "cardinality":"single"
                    },
                    "cmis:contentStreamId":{
                        "id":"cmis:contentStreamId",
                        "localName":"cmis:contentStreamId",
                        "queryName":"cmis:contentStreamId",
                        "value":null,
                        "type":"id",
                        "displayName":"Stream Id",
                        "cardinality":"single"
                    },
                    "cmis:name":{
                        "id":"cmis:name",
                        "localName":"cmis:name",
                        "queryName":"cmis:name",
                        "value":"My_Document-1-1",
                        "type":"string",
                        "displayName":"Name",
                        "cardinality":"single"
                    },
                    "cmis:contentStreamMimeType":{
                        "id":"cmis:contentStreamMimeType",
                        "localName":"cmis:contentStreamMimeType",
                        "queryName":"cmis:contentStreamMimeType",
                        "value":"text\/plain",
                        "type":"string",
                        "displayName":"Mime Type",
                        "cardinality":"single"
                    },
                    "StringProp":{
                        "id":"StringProp",
                        "localName":"StringProp",
                        "queryName":"StringProp",
                        "value":"My Doc StringProperty 7",
                        "type":"string",
                        "displayName":"Sample String Property",
                        "cardinality":"single"
                    },
                    "cmis:creationDate":{
                        "id":"cmis:creationDate",
                        "localName":"cmis:creationDate",
                        "queryName":"cmis:creationDate",
                        "value":1342160009674,
                        "type":"datetime",
                        "displayName":"Creation Date",
                        "cardinality":"single"
                    },
                    "cmis:changeToken":{
                        "id":"cmis:changeToken",
                        "localName":"cmis:changeToken",
                        "queryName":"cmis:changeToken",
                        "value":"1342160009674",
                        "type":"string",
                        "displayName":"Change Token",
                        "cardinality":"single"
                    },
                    "DecimalPropMV":{
                        "id":"DecimalPropMV",
                        "localName":"DecimalPropMV",
                        "queryName":"DecimalPropMV",
                        "value":null,
                        "type":"decimal",
                        "displayName":"Sample Decimal multi-value Property",
                        "cardinality":"multi"
                    },
                    "DateTimeProp":{
                        "id":"DateTimeProp",
                        "localName":"DateTimeProp",
                        "queryName":"DateTimeProp",
                        "value":null,
                        "type":"datetime",
                        "displayName":"Sample DateTime Property",
                        "cardinality":"single"
                    },
                    "BooleanPropMV":{
                        "id":"BooleanPropMV",
                        "localName":"BooleanPropMV",
                        "queryName":"BooleanPropMV",
                        "value":null,
                        "type":"boolean",
                        "displayName":"Sample Boolean multi-value Property",
                        "cardinality":"multi"
                    },
                    "cmis:checkinComment":{
                        "id":"cmis:checkinComment",
                        "localName":"cmis:checkinComment",
                        "queryName":"cmis:checkinComment",
                        "value":null,
                        "type":"string",
                        "displayName":"Checkin Comment",
                        "cardinality":"single"
                    },
                    "cmis:objectId":{
                        "id":"cmis:objectId",
                        "localName":"cmis:objectId",
                        "queryName":"cmis:objectId",
                        "value":"115",
                        "type":"id",
                        "displayName":"Object Id",
                        "cardinality":"single"
                    },
                    "cmis:isMajorVersion":{
                        "id":"cmis:isMajorVersion",
                        "localName":"cmis:isMajorVersion",
                        "queryName":"cmis:isMajorVersion",
                        "value":true,
                        "type":"boolean",
                        "displayName":"Is Major Version",
                        "cardinality":"single"
                    },
                    "cmis:isImmutable":{
                        "id":"cmis:isImmutable",
                        "localName":"cmis:isImmutable",
                        "queryName":"cmis:isImmutable",
                        "value":false,
                        "type":"boolean",
                        "displayName":"Immutable",
                        "cardinality":"single"
                    },
                    "cmis:baseTypeId":{
                        "id":"cmis:baseTypeId",
                        "localName":"cmis:baseTypeId",
                        "queryName":"cmis:baseTypeId",
                        "value":"cmis:document",
                        "type":"id",
                        "displayName":"Base-Type-Id",
                        "cardinality":"single"
                    },
                    "IntPropMV":{
                        "id":"IntPropMV",
                        "localName":"IntPropMV",
                        "queryName":"IntPropMV",
                        "value":null,
                        "type":"integer",
                        "displayName":"Sample Int multi-value Property",
                        "cardinality":"multi"
                    },
                    "cmis:lastModificationDate":{
                        "id":"cmis:lastModificationDate",
                        "localName":"cmis:lastModificationDate",
                        "queryName":"cmis:lastModificationDate",
                        "value":1342160009674,
                        "type":"datetime",
                        "displayName":"Modification Date",
                        "cardinality":"single"
                    },
                    "cmis:contentStreamFileName":{
                        "id":"cmis:contentStreamFileName",
                        "localName":"cmis:contentStreamFileName",
                        "queryName":"cmis:contentStreamFileName",
                        "value":"data.txt",
                        "type":"string",
                        "displayName":"File Name",
                        "cardinality":"single"
                    }
                }
            }
        },
        {
            "pathSegment":"My_Document-1-2",
            "object":{
                "allowableActions":{
                    "canGetACL":false,
                    "canGetObjectRelationships":false,
                    "canGetContentStream":true,
                    "canCheckIn":false,
                    "canApplyACL":false,
                    "canRemoveObjectFromFolder":true,
                    "canMoveObject":true,
                    "canDeleteContentStream":true,
                    "canGetProperties":true,
                    "canGetAllVersions":false,
                    "canApplyPolicy":false,
                    "canGetObjectParents":true,
                    "canSetContentStream":true,
                    "canCreateRelationship":false,
                    "canGetFolderTree":false,
                    "canCheckOut":false,
                    "canCreateDocument":false,
                    "canCancelCheckOut":false,
                    "canAddObjectToFolder":true,
                    "canRemovePolicy":false,
                    "canDeleteObject":true,
                    "canGetDescendants":false,
                    "canGetFolderParent":false,
                    "canGetAppliedPolicies":false,
                    "canDeleteTree":false,
                    "canUpdateProperties":true,
                    "canGetRenditions":false,
                    "canCreateFolder":false,
                    "canGetChildren":false
                },
                "properties":{
                    "cmis:contentStreamLength":{
                        "id":"cmis:contentStreamLength",
                        "localName":"cmis:contentStreamLength",
                        "queryName":"cmis:contentStreamLength",
                        "value":33522,
                        "type":"integer",
                        "displayName":"Content Length",
                        "cardinality":"single"
                    },
                    "cmis:versionSeriesCheckedOutBy":{
                        "id":"cmis:versionSeriesCheckedOutBy",
                        "localName":"cmis:versionSeriesCheckedOutBy",
                        "queryName":"cmis:versionSeriesCheckedOutBy",
                        "value":null,
                        "type":"string",
                        "displayName":"Checked Out By",
                        "cardinality":"single"
                    },
                    "cmis:objectTypeId":{
                        "id":"cmis:objectTypeId",
                        "localName":"cmis:objectTypeId",
                        "queryName":"cmis:objectTypeId",
                        "value":"ComplexType",
                        "type":"id",
                        "displayName":"Type-Id",
                        "cardinality":"single"
                    },
                    "cmis:versionSeriesCheckedOutId":{
                        "id":"cmis:versionSeriesCheckedOutId",
                        "localName":"cmis:versionSeriesCheckedOutId",
                        "queryName":"cmis:versionSeriesCheckedOutId",
                        "value":null,
                        "type":"id",
                        "displayName":"Checked Out Id",
                        "cardinality":"single"
                    },
                    "HtmlProp":{
                        "id":"HtmlProp",
                        "localName":"HtmlProp",
                        "queryName":"HtmlProp",
                        "value":null,
                        "type":"html",
                        "displayName":"Sample Html Property",
                        "cardinality":"single"
                    },
                    "IdProp":{
                        "id":"IdProp",
                        "localName":"IdProp",
                        "queryName":"IdProp",
                        "value":null,
                        "type":"id",
                        "displayName":"Sample Id Property",
                        "cardinality":"single"
                    },
                    "DateTimePropMV":{
                        "id":"DateTimePropMV",
                        "localName":"DateTimePropMV",
                        "queryName":"DateTimePropMV",
                        "value":null,
                        "type":"datetime",
                        "displayName":"Sample DateTime multi-value Property",
                        "cardinality":"multi"
                    },
                    "UriProp":{
                        "id":"UriProp",
                        "localName":"UriProp",
                        "queryName":"UriProp",
                        "value":null,
                        "type":"uri",
                        "displayName":"Sample Uri Property",
                        "cardinality":"single"
                    },
                    "cmis:versionSeriesId":{
                        "id":"cmis:versionSeriesId",
                        "localName":"cmis:versionSeriesId",
                        "queryName":"cmis:versionSeriesId",
                        "value":null,
                        "type":"id",
                        "displayName":"Version Series Id",
                        "cardinality":"single"
                    },
                    "DecimalProp":{
                        "id":"DecimalProp",
                        "localName":"DecimalProp",
                        "queryName":"DecimalProp",
                        "value":null,
                        "type":"decimal",
                        "displayName":"Sample Decimal Property",
                        "cardinality":"single"
                    },
                    "UriPropMV":{
                        "id":"UriPropMV",
                        "localName":"UriPropMV",
                        "queryName":"UriPropMV",
                        "value":null,
                        "type":"uri",
                        "displayName":"Sample Uri multi-value Property",
                        "cardinality":"multi"
                    },
                    "cmis:versionLabel":{
                        "id":"cmis:versionLabel",
                        "localName":"cmis:versionLabel",
                        "queryName":"cmis:versionLabel",
                        "value":null,
                        "type":"string",
                        "displayName":"Version Label",
                        "cardinality":"single"
                    },
                    "cmis:isLatestVersion":{
                        "id":"cmis:isLatestVersion",
                        "localName":"cmis:isLatestVersion",
                        "queryName":"cmis:isLatestVersion",
                        "value":true,
                        "type":"boolean",
                        "displayName":"Is Latest Version",
                        "cardinality":"single"
                    },
                    "BooleanProp":{
                        "id":"BooleanProp",
                        "localName":"BooleanProp",
                        "queryName":"BooleanProp",
                        "value":null,
                        "type":"boolean",
                        "displayName":"Sample Boolean Property",
                        "cardinality":"single"
                    },
                    "cmis:isVersionSeriesCheckedOut":{
                        "id":"cmis:isVersionSeriesCheckedOut",
                        "localName":"cmis:isVersionSeriesCheckedOut",
                        "queryName":"cmis:isVersionSeriesCheckedOut",
                        "value":false,
                        "type":"boolean",
                        "displayName":"Checked Out",
                        "cardinality":"single"
                    },
                    "cmis:lastModifiedBy":{
                        "id":"cmis:lastModifiedBy",
                        "localName":"cmis:lastModifiedBy",
                        "queryName":"cmis:lastModifiedBy",
                        "value":"unknown",
                        "type":"string",
                        "displayName":"Modified By",
                        "cardinality":"single"
                    },
                    "cmis:createdBy":{
                        "id":"cmis:createdBy",
                        "localName":"cmis:createdBy",
                        "queryName":"cmis:createdBy",
                        "value":"unknown",
                        "type":"string",
                        "displayName":"Created By",
                        "cardinality":"single"
                    },
                    "IdPropMV":{
                        "id":"IdPropMV",
                        "localName":"IdPropMV",
                        "queryName":"IdPropMV",
                        "value":null,
                        "type":"id",
                        "displayName":"Sample Id Html multi-value Property",
                        "cardinality":"multi"
                    },
                    "PickListProp":{
                        "id":"PickListProp",
                        "localName":"PickListProp",
                        "queryName":"PickListProp",
                        "value":"blue",
                        "type":"string",
                        "displayName":"Sample Pick List Property",
                        "cardinality":"single"
                    },
                    "HtmlPropMV":{
                        "id":"HtmlPropMV",
                        "localName":"HtmlPropMV",
                        "queryName":"HtmlPropMV",
                        "value":null,
                        "type":"html",
                        "displayName":"Sample Html multi-value Property",
                        "cardinality":"multi"
                    },
                    "IntProp":{
                        "id":"IntProp",
                        "localName":"IntProp",
                        "queryName":"IntProp",
                        "value":null,
                        "type":"integer",
                        "displayName":"Sample Int Property",
                        "cardinality":"single"
                    },
                    "cmis:isLatestMajorVersion":{
                        "id":"cmis:isLatestMajorVersion",
                        "localName":"cmis:isLatestMajorVersion",
                        "queryName":"cmis:isLatestMajorVersion",
                        "value":true,
                        "type":"boolean",
                        "displayName":"Is Latest Major Version",
                        "cardinality":"single"
                    },
                    "cmis:contentStreamId":{
                        "id":"cmis:contentStreamId",
                        "localName":"cmis:contentStreamId",
                        "queryName":"cmis:contentStreamId",
                        "value":null,
                        "type":"id",
                        "displayName":"Stream Id",
                        "cardinality":"single"
                    },
                    "cmis:name":{
                        "id":"cmis:name",
                        "localName":"cmis:name",
                        "queryName":"cmis:name",
                        "value":"My_Document-1-2",
                        "type":"string",
                        "displayName":"Name",
                        "cardinality":"single"
                    },
                    "cmis:contentStreamMimeType":{
                        "id":"cmis:contentStreamMimeType",
                        "localName":"cmis:contentStreamMimeType",
                        "queryName":"cmis:contentStreamMimeType",
                        "value":"text\/plain",
                        "type":"string",
                        "displayName":"Mime Type",
                        "cardinality":"single"
                    },
                    "StringProp":{
                        "id":"StringProp",
                        "localName":"StringProp",
                        "queryName":"StringProp",
                        "value":"My Doc StringProperty 8",
                        "type":"string",
                        "displayName":"Sample String Property",
                        "cardinality":"single"
                    },
                    "cmis:creationDate":{
                        "id":"cmis:creationDate",
                        "localName":"cmis:creationDate",
                        "queryName":"cmis:creationDate",
                        "value":1342160009713,
                        "type":"datetime",
                        "displayName":"Creation Date",
                        "cardinality":"single"
                    },
                    "cmis:changeToken":{
                        "id":"cmis:changeToken",
                        "localName":"cmis:changeToken",
                        "queryName":"cmis:changeToken",
                        "value":"1342160009713",
                        "type":"string",
                        "displayName":"Change Token",
                        "cardinality":"single"
                    },
                    "DecimalPropMV":{
                        "id":"DecimalPropMV",
                        "localName":"DecimalPropMV",
                        "queryName":"DecimalPropMV",
                        "value":null,
                        "type":"decimal",
                        "displayName":"Sample Decimal multi-value Property",
                        "cardinality":"multi"
                    },
                    "DateTimeProp":{
                        "id":"DateTimeProp",
                        "localName":"DateTimeProp",
                        "queryName":"DateTimeProp",
                        "value":null,
                        "type":"datetime",
                        "displayName":"Sample DateTime Property",
                        "cardinality":"single"
                    },
                    "BooleanPropMV":{
                        "id":"BooleanPropMV",
                        "localName":"BooleanPropMV",
                        "queryName":"BooleanPropMV",
                        "value":null,
                        "type":"boolean",
                        "displayName":"Sample Boolean multi-value Property",
                        "cardinality":"multi"
                    },
                    "cmis:checkinComment":{
                        "id":"cmis:checkinComment",
                        "localName":"cmis:checkinComment",
                        "queryName":"cmis:checkinComment",
                        "value":null,
                        "type":"string",
                        "displayName":"Checkin Comment",
                        "cardinality":"single"
                    },
                    "cmis:objectId":{
                        "id":"cmis:objectId",
                        "localName":"cmis:objectId",
                        "queryName":"cmis:objectId",
                        "value":"116",
                        "type":"id",
                        "displayName":"Object Id",
                        "cardinality":"single"
                    },
                    "cmis:isMajorVersion":{
                        "id":"cmis:isMajorVersion",
                        "localName":"cmis:isMajorVersion",
                        "queryName":"cmis:isMajorVersion",
                        "value":true,
                        "type":"boolean",
                        "displayName":"Is Major Version",
                        "cardinality":"single"
                    },
                    "cmis:isImmutable":{
                        "id":"cmis:isImmutable",
                        "localName":"cmis:isImmutable",
                        "queryName":"cmis:isImmutable",
                        "value":false,
                        "type":"boolean",
                        "displayName":"Immutable",
                        "cardinality":"single"
                    },
                    "cmis:baseTypeId":{
                        "id":"cmis:baseTypeId",
                        "localName":"cmis:baseTypeId",
                        "queryName":"cmis:baseTypeId",
                        "value":"cmis:document",
                        "type":"id",
                        "displayName":"Base-Type-Id",
                        "cardinality":"single"
                    },
                    "IntPropMV":{
                        "id":"IntPropMV",
                        "localName":"IntPropMV",
                        "queryName":"IntPropMV",
                        "value":null,
                        "type":"integer",
                        "displayName":"Sample Int multi-value Property",
                        "cardinality":"multi"
                    },
                    "cmis:lastModificationDate":{
                        "id":"cmis:lastModificationDate",
                        "localName":"cmis:lastModificationDate",
                        "queryName":"cmis:lastModificationDate",
                        "value":1342160009713,
                        "type":"datetime",
                        "displayName":"Modification Date",
                        "cardinality":"single"
                    },
                    "cmis:contentStreamFileName":{
                        "id":"cmis:contentStreamFileName",
                        "localName":"cmis:contentStreamFileName",
                        "queryName":"cmis:contentStreamFileName",
                        "value":"data.txt",
                        "type":"string",
                        "displayName":"File Name",
                        "cardinality":"single"
                    }
                }
            }
        },
        {
            "pathSegment":"My_Folder-1-0",
            "object":{
                "allowableActions":{
                    "canGetACL":false,
                    "canGetObjectRelationships":false,
                    "canGetContentStream":false,
                    "canCheckIn":false,
                    "canApplyACL":false,
                    "canRemoveObjectFromFolder":false,
                    "canMoveObject":true,
                    "canDeleteContentStream":false,
                    "canGetProperties":true,
                    "canGetAllVersions":false,
                    "canApplyPolicy":false,
                    "canGetObjectParents":true,
                    "canSetContentStream":false,
                    "canCreateRelationship":false,
                    "canGetFolderTree":true,
                    "canCheckOut":false,
                    "canCreateDocument":true,
                    "canCancelCheckOut":false,
                    "canAddObjectToFolder":false,
                    "canRemovePolicy":false,
                    "canDeleteObject":true,
                    "canGetDescendants":true,
                    "canGetFolderParent":true,
                    "canGetAppliedPolicies":false,
                    "canDeleteTree":true,
                    "canUpdateProperties":true,
                    "canGetRenditions":false,
                    "canCreateFolder":true,
                    "canGetChildren":true
                },
                "properties":{
                    "cmis:allowedChildObjectTypeIds":{
                        "id":"cmis:allowedChildObjectTypeIds",
                        "localName":"cmis:allowedChildObjectTypeIds",
                        "queryName":"cmis:allowedChildObjectTypeIds",
                        "value":[
                            "*"
                        ],
                        "type":"id",
                        "displayName":"Allowed Child Types",
                        "cardinality":"multi"
                    },
                    "cmis:objectTypeId":{
                        "id":"cmis:objectTypeId",
                        "localName":"cmis:objectTypeId",
                        "queryName":"cmis:objectTypeId",
                        "value":"cmis:folder",
                        "type":"id",
                        "displayName":"Type-Id",
                        "cardinality":"single"
                    },
                    "cmis:lastModifiedBy":{
                        "id":"cmis:lastModifiedBy",
                        "localName":"cmis:lastModifiedBy",
                        "queryName":"cmis:lastModifiedBy",
                        "value":"unknown",
                        "type":"string",
                        "displayName":"Modified By",
                        "cardinality":"single"
                    },
                    "cmis:path":{
                        "id":"cmis:path",
                        "localName":"cmis:path",
                        "queryName":"cmis:path",
                        "value":"\/My_Folder-0-0\/My_Folder-1-0",
                        "type":"string",
                        "displayName":"Path",
                        "cardinality":"single"
                    },
                    "cmis:name":{
                        "id":"cmis:name",
                        "localName":"cmis:name",
                        "queryName":"cmis:name",
                        "value":"My_Folder-1-0",
                        "type":"string",
                        "displayName":"Name",
                        "cardinality":"single"
                    },
                    "cmis:createdBy":{
                        "id":"cmis:createdBy",
                        "localName":"cmis:createdBy",
                        "queryName":"cmis:createdBy",
                        "value":"unknown",
                        "type":"string",
                        "displayName":"Created By",
                        "cardinality":"single"
                    },
                    "cmis:objectId":{
                        "id":"cmis:objectId",
                        "localName":"cmis:objectId",
                        "queryName":"cmis:objectId",
                        "value":"102",
                        "type":"id",
                        "displayName":"Object Id",
                        "cardinality":"single"
                    },
                    "cmis:creationDate":{
                        "id":"cmis:creationDate",
                        "localName":"cmis:creationDate",
                        "queryName":"cmis:creationDate",
                        "value":1342160009207,
                        "type":"datetime",
                        "displayName":"Creation Date",
                        "cardinality":"single"
                    },
                    "cmis:changeToken":{
                        "id":"cmis:changeToken",
                        "localName":"cmis:changeToken",
                        "queryName":"cmis:changeToken",
                        "value":"1342160009207",
                        "type":"string",
                        "displayName":"Change Token",
                        "cardinality":"single"
                    },
                    "cmis:baseTypeId":{
                        "id":"cmis:baseTypeId",
                        "localName":"cmis:baseTypeId",
                        "queryName":"cmis:baseTypeId",
                        "value":"cmis:folder",
                        "type":"id",
                        "displayName":"Base-Type-Id",
                        "cardinality":"single"
                    },
                    "cmis:lastModificationDate":{
                        "id":"cmis:lastModificationDate",
                        "localName":"cmis:lastModificationDate",
                        "queryName":"cmis:lastModificationDate",
                        "value":1342160009207,
                        "type":"datetime",
                        "displayName":"Modification Date",
                        "cardinality":"single"
                    },
                    "cmis:parentId":{
                        "id":"cmis:parentId",
                        "localName":"cmis:parentId",
                        "queryName":"cmis:parentId",
                        "value":"101",
                        "type":"id",
                        "displayName":"Parent Id",
                        "cardinality":"single"
                    }
                }
            }
        },
        {
            "pathSegment":"My_Folder-1-1",
            "object":{
                "allowableActions":{
                    "canGetACL":false,
                    "canGetObjectRelationships":false,
                    "canGetContentStream":false,
                    "canCheckIn":false,
                    "canApplyACL":false,
                    "canRemoveObjectFromFolder":false,
                    "canMoveObject":true,
                    "canDeleteContentStream":false,
                    "canGetProperties":true,
                    "canGetAllVersions":false,
                    "canApplyPolicy":false,
                    "canGetObjectParents":true,
                    "canSetContentStream":false,
                    "canCreateRelationship":false,
                    "canGetFolderTree":true,
                    "canCheckOut":false,
                    "canCreateDocument":true,
                    "canCancelCheckOut":false,
                    "canAddObjectToFolder":false,
                    "canRemovePolicy":false,
                    "canDeleteObject":true,
                    "canGetDescendants":true,
                    "canGetFolderParent":true,
                    "canGetAppliedPolicies":false,
                    "canDeleteTree":true,
                    "canUpdateProperties":true,
                    "canGetRenditions":false,
                    "canCreateFolder":true,
                    "canGetChildren":true
                },
                "properties":{
                    "cmis:allowedChildObjectTypeIds":{
                        "id":"cmis:allowedChildObjectTypeIds",
                        "localName":"cmis:allowedChildObjectTypeIds",
                        "queryName":"cmis:allowedChildObjectTypeIds",
                        "value":[
                            "*"
                        ],
                        "type":"id",
                        "displayName":"Allowed Child Types",
                        "cardinality":"multi"
                    },
                    "cmis:objectTypeId":{
                        "id":"cmis:objectTypeId",
                        "localName":"cmis:objectTypeId",
                        "queryName":"cmis:objectTypeId",
                        "value":"cmis:folder",
                        "type":"id",
                        "displayName":"Type-Id",
                        "cardinality":"single"
                    },
                    "cmis:lastModifiedBy":{
                        "id":"cmis:lastModifiedBy",
                        "localName":"cmis:lastModifiedBy",
                        "queryName":"cmis:lastModifiedBy",
                        "value":"unknown",
                        "type":"string",
                        "displayName":"Modified By",
                        "cardinality":"single"
                    },
                    "cmis:path":{
                        "id":"cmis:path",
                        "localName":"cmis:path",
                        "queryName":"cmis:path",
                        "value":"\/My_Folder-0-0\/My_Folder-1-1",
                        "type":"string",
                        "displayName":"Path",
                        "cardinality":"single"
                    },
                    "cmis:name":{
                        "id":"cmis:name",
                        "localName":"cmis:name",
                        "queryName":"cmis:name",
                        "value":"My_Folder-1-1",
                        "type":"string",
                        "displayName":"Name",
                        "cardinality":"single"
                    },
                    "cmis:createdBy":{
                        "id":"cmis:createdBy",
                        "localName":"cmis:createdBy",
                        "queryName":"cmis:createdBy",
                        "value":"unknown",
                        "type":"string",
                        "displayName":"Created By",
                        "cardinality":"single"
                    },
                    "cmis:objectId":{
                        "id":"cmis:objectId",
                        "localName":"cmis:objectId",
                        "queryName":"cmis:objectId",
                        "value":"108",
                        "type":"id",
                        "displayName":"Object Id",
                        "cardinality":"single"
                    },
                    "cmis:creationDate":{
                        "id":"cmis:creationDate",
                        "localName":"cmis:creationDate",
                        "queryName":"cmis:creationDate",
                        "value":1342160009476,
                        "type":"datetime",
                        "displayName":"Creation Date",
                        "cardinality":"single"
                    },
                    "cmis:changeToken":{
                        "id":"cmis:changeToken",
                        "localName":"cmis:changeToken",
                        "queryName":"cmis:changeToken",
                        "value":"1342160009476",
                        "type":"string",
                        "displayName":"Change Token",
                        "cardinality":"single"
                    },
                    "cmis:baseTypeId":{
                        "id":"cmis:baseTypeId",
                        "localName":"cmis:baseTypeId",
                        "queryName":"cmis:baseTypeId",
                        "value":"cmis:folder",
                        "type":"id",
                        "displayName":"Base-Type-Id",
                        "cardinality":"single"
                    },
                    "cmis:lastModificationDate":{
                        "id":"cmis:lastModificationDate",
                        "localName":"cmis:lastModificationDate",
                        "queryName":"cmis:lastModificationDate",
                        "value":1342160009476,
                        "type":"datetime",
                        "displayName":"Modification Date",
                        "cardinality":"single"
                    },
                    "cmis:parentId":{
                        "id":"cmis:parentId",
                        "localName":"cmis:parentId",
                        "queryName":"cmis:parentId",
                        "value":"101",
                        "type":"id",
                        "displayName":"Parent Id",
                        "cardinality":"single"
                    }
                }
            }
        }
    ],
    "numItems":5
}
